Lab1/simulation/qsim/Lab1.msim.vcd
$comment
	File created using the following command:
		vcd file Lab1.msim.vcd -direction
$end
$date
	Sat Jan 23 18:50:47 2021
$end
$version
	ModelSim Version 10.1e
$end
$timescale
	1ps
$end
$scope module light_vlg_vec_tst $end
$var reg 1 ! x1 $end
$var reg 1 " x2 $end
$var wire 1 # f $end
$var wire 1 $ sampler $end
$scope module i1 $end
$var wire 1 % gnd $end
$var wire 1 & vcc $end
$var wire 1 ' unknown $end
$var tri1 1 ( devclrn $end
$var tri1 1 ) devpor $end
$var tri1 1 * devoe $end
$var wire 1 + f~output_o $end
$var wire 1 , x1~input_o $end
$var wire 1 - x2~input_o $end
$var wire 1 . f~0_combout $end
$upscope $end
$upscope $end
$enddefinitions $end
#0
$dumpvars
0!
0"
x#
x$
0%
1&
x'
1(
1)
1*
x+
0,
0-
x.
$end
#3456
0.
#8165
0+
0#
#50000
1"
0$
#50670
1-
#53579
1.
#58253
1+
1#
#100000
1!
0"
1$
#100660
1,
#100776
0-
#150000
1"
0$
#150670
1-
#153563
0.
#158272
0+
0#
